\relax 
\ifx\hyper@anchor\@undefined
\global \let \oldcontentsline\contentsline
\gdef \contentsline#1#2#3#4{\oldcontentsline{#1}{#2}{#3}}
\global \let \oldnewlabel\newlabel
\gdef \newlabel#1#2{\newlabelxx{#1}#2}
\gdef \newlabelxx#1#2#3#4#5#6{\oldnewlabel{#1}{{#2}{#3}}}
\AtEndDocument{\let \contentsline\oldcontentsline
\let \newlabel\oldnewlabel}
\else
\global \let \hyper@last\relax 
\fi

\@writefile{lof}{\contentsline {figure}{\numberline {1}{\ignorespaces Latency Results}}{2}{figure.1}}
\newlabel{fig:latency}{{1}{2}{Latency Results\relax }{figure.1}{}}
\@writefile{lof}{\contentsline {figure}{\numberline {2}{\ignorespaces Throughput Results}}{3}{figure.2}}
\newlabel{fig:throughput}{{2}{3}{Throughput Results\relax }{figure.2}{}}
